%YAML 1.1
%TAG !u! tag:unity3d.com,2011:
--- !u!1045 &1
EditorBuildSettings:
  m_ObjectHideFlags: 0
  serializedVersion: 2
  m_Scenes:
  - enabled: 1
    path: Assets/Scenes/SimulationScene.unity
    guid: 814bf32f6202d3b45b801a6bbf20e166
  m_configObjects: {}
